<?xml version="1.0" encoding="utf-8"?>
<!-- Generator: Adobe Illustrator 22.1.0, SVG Export Plug-In . SVG Version: 6.00 Build 0)  -->
<svg version="1.1" id="Layer_1" xmlns="http://www.w3.org/2000/svg" xmlns:xlink="http://www.w3.org/1999/xlink" x="0px" y="0px"
	 viewBox="0 0 241.2 241.2" style="enable-background:new 0 0 241.2 241.2;" xml:space="preserve">
<g>
	<defs>
		<rect id="SVGID_1_" x="-32" y="-4347.4" width="503" height="89"/>
	</defs>
	<clipPath id="SVGID_2_">
		<use xlink:href="#SVGID_1_"  style="overflow:visible;"/>
	</clipPath>
	<g style="clip-path:url(#SVGID_2_);">
		
			<text transform="matrix(1 0 0 1 -32 -4316.4434)" style="fill:#010101; font-family:'GTAmerica-ExtendedMedium'; font-size:32px;">UP</text>
	</g>
</g>
<path d="M120.6,239.7c-65.6,0-119-53.4-119-119c0-65.6,53.4-119,119-119s119,53.4,119,119C239.6,186.3,186.2,239.7,120.6,239.7z
	 M120.6,15.7c-57.9,0-105,47.1-105,105c0,57.9,47.1,105,105,105s105-47.1,105-105C225.6,62.8,178.5,15.7,120.6,15.7z"/>
<g>
	<path d="M60.6,89.3v45.4c0,12.3,7.6,20.9,21.3,20.9c13.4,0,21.2-8.6,21.2-20.9V89.3h15v46.4c0,19.2-13,32.2-36.1,32.2
		c-23.2,0-36.3-13-36.3-32.2V89.3H60.6z"/>
	<path d="M203,113.1c0,15-11.2,24.4-28.7,24.4h-22.9v28.2h-15V89.3h38.5C192.1,89.3,203,98.5,203,113.1z M187.4,113.4
		c0-8.1-5.8-13-15.5-13h-20.5v26.1h20.5C181.4,126.5,187.4,121.5,187.4,113.4z"/>
</g>
</svg>
